17:54:17.507 INFO  ========== Multiple - Initial Open first ========== 
17:54:17.507 INFO  [609,537,522,537,502,536,519,548,423,430,410,421,405,431,431,433,398,454,437,416,463,480,489,425,415,450,459,425,417,419,443,412,413,407,419,462,393,456,459,419,415,404,421,464,452,476,434,419,417,450,449,437,414,446,442,434,430,432,455,410,441,436,434,398,429,402,411,407,401,385,396,396,441,430,424,404,416,405,435,449,444,447,438,459,452,406,476,419,431,424,435,444,427,419,444,424,447,474,460,456] 
17:54:17.507 INFO  Zeit: 439.91ms (±37.06) 
17:54:17.507 INFO   
17:56:47.711 INFO  ========== Multiple - Initial Open last ========== 
17:56:47.711 INFO  [453,464,418,418,413,450,451,408,402,405,413,403,424,424,401,400,432,409,404,411,417,400,457,398,430,417,434,399,403,406,422,443,422,402,404,411,427,405,436,416,427,449,430,429,434,407,418,440,408,401,405,438,397,442,405,428,478,417,408,428,438,394,425,424,403,468,454,405,416,454,390,424,412,408,451,421,402,448,448,408,422,444,409,406,394,447,406,408,403,411,440,402,414,403,414,399,427,449,412,459] 
17:56:47.711 INFO  Zeit: 421.03ms (±19.49) 
17:56:47.711 INFO   
17:59:17.804 INFO  ========== Single - Initial Open first ========== 
17:59:17.804 INFO  [562,409,447,426,426,432,440,413,437,467,432,443,448,421,425,428,426,436,464,433,433,434,436,424,472,446,435,408,420,427,443,437,426,448,449,409,434,486,412,443,444,418,434,443,410,456,422,438,433,437,406,423,406,408,445,422,440,424,425,464,419,422,421,416,411,421,446,444,423,456,420,458,479,439,433,400,409,419,418,434,433,419,437,414,419,424,438,400,443,431,421,429,445,420,440,461,463,436,436,411] 
17:59:17.804 INFO  Zeit: 433.43ms (±21.38) 
17:59:17.804 INFO   
18:01:46.234 INFO  ========== Single - Initial Open last ========== 
18:01:46.234 INFO  [450,423,442,407,423,401,408,384,391,395,425,461,410,394,404,404,422,392,460,397,408,382,429,416,416,426,402,435,419,433,405,424,407,431,446,423,414,393,401,431,415,381,403,404,407,424,420,391,393,408,415,415,419,420,413,421,402,414,392,451,406,411,407,402,411,987,396,423,402,487,408,416,407,457,409,423,429,405,400,394,417,414,387,391,439,430,399,384,399,391,448,392,389,414,396,393,419,406,400,406] 
18:01:46.234 INFO  Zeit: 418.36ms (±60.52) 
18:01:46.234 INFO   
18:05:30.538 INFO  ========== Single - Open last when first open ========== 
18:05:30.538 INFO  [559,603,563,579,630,581,559,573,572,567,569,567,577,593,584,572,584,586,593,568,569,553,558,597,582,563,580,572,632,592,596,561,613,595,562,567,609,593,554,632,563,576,558,563,601,594,626,580,575,601,597,599,603,552,593,569,594,579,570,580,578,564,571,558,566,567,594,634,585,572,571,562,555,567,564,592,599,565,612,552,578,577,605,566,580,588,557,580,584,582,573,588,570,556,584,593,587,581,567,590] 
18:05:30.538 INFO  Zeit: 580.46ms (±18.80) 
18:05:30.538 INFO   
18:09:11.822 INFO  ========== Single - Open first when last open ========== 
18:09:11.823 INFO  [585,556,574,554,596,546,564,607,583,559,572,613,575,568,565,550,568,553,576,587,582,609,594,569,581,556,562,571,624,569,567,579,564,574,560,575,561,569,579,551,555,595,622,621,608,597,614,584,569,575,574,595,650,576,552,616,578,564,557,557,558,577,566,630,548,559,572,555,610,573,581,596,567,563,569,567,565,563,574,564,578,573,619,584,563,565,550,604,562,580,564,571,568,591,575,607,577,608,572,561] 
18:09:11.823 INFO  Zeit: 577.35ms (±20.86) 
18:09:11.823 INFO   
18:10:39.290 INFO  ========== Strict - Initial Load ========== 
18:10:39.290 INFO  [287,321,431,319,320,347,364,366,317,370,323,329,333,313,317,387,327,345,308,311,338,333,363,303,310,314,310,305,307,336,405,324,331,324,293,297,335,320,340,325,311,319,316,373,324,312,302,310,320,347,357,310,347,339,314,313,302,307,323,288,319,335,292,347,318,301,335,302,348,317,318,297,313,389,316,316,315,328,338,317,330,296,302,353,311,317,326,333,339,296,317,328,312,340,310,301,322,327,308,299] 
18:10:39.290 INFO  Zeit: 325.10ms (±24.44) 
18:10:39.290 INFO   
18:13:36.868 INFO  ========== Strict - Open second ========== 
18:13:36.868 INFO  [620,590,580,561,588,586,585,595,587,578,608,596,646,566,582,574,582,555,588,609,581,571,582,615,609,598,567,578,579,574,581,591,577,591,569,567,572,592,591,572,572,575,562,581,580,629,586,581,559,606,589,603,585,579,586,604,583,583,585,586,574,588,605,615,588,564,571,612,599,582,586,575,580,604,623,622,604,567,594,613,626,577,569,570,598,593,586,591,559,617,604,597,612,599,608,571,577,577,588,590] 
18:13:36.868 INFO  Zeit: 588.22ms (±17.38) 
18:13:36.868 INFO   
18:16:36.231 INFO  ========== Strict - Open last ========== 
18:16:36.231 INFO  [573,577,592,583,585,566,612,579,578,565,608,630,570,578,642,584,570,605,584,619,574,562,654,575,587,579,588,587,584,564,605,587,605,569,560,567,566,612,590,567,574,569,617,597,593,576,571,596,581,585,596,571,569,589,566,591,572,570,570,585,570,591,604,583,571,585,562,608,576,567,566,601,610,591,570,584,559,589,570,573,570,595,622,576,587,582,566,575,596,581,591,577,576,575,598,608,579,565,582,575] 
18:16:36.231 INFO  Zeit: 584.26ms (±17.83) 
18:16:36.231 INFO   
18:20:12.059 INFO  ========== Strict - Open first when last open ========== 
18:20:12.059 INFO  [566,550,537,554,571,559,568,578,561,560,555,555,535,536,551,539,543,532,603,565,556,582,559,605,544,563,558,604,572,556,581,594,554,596,544,610,548,594,554,564,599,542,585,567,578,558,580,595,549,587,568,577,556,576,579,570,554,564,543,576,625,555,554,548,554,553,554,563,558,535,544,549,566,557,540,590,537,538,541,547,533,563,532,555,545,552,558,559,549,550,550,541,537,554,563,539,569,566,537,568] 
18:20:12.059 INFO  Zeit: 560.87ms (±19.46) 
18:20:12.059 INFO   
